test_gtkwave.vcd
$date
    Tue Jan 26 22:40:00 2025
$end
$version
    Test VCD Generator
$end
$comment
    Simple test waveform for GTKWave MCP
$end
$timescale
    1ns
$end
$scope module top $end
$var wire 1 ! clk $end
$var wire 1 # reset $end
$var wire 8 $ data [7:0] $end
$var wire 1 % valid $end
$upscope $end
$enddefinitions $end
#0
$dumpvars
0!
1#
b00000000 $
0%
$end
#10
1!
0#
#20
0!
#30
1!
b00000001 $
1%
#40
0!
#50
1!
b00000010 $
#60
0!
#70
1!
b00000100 $
#80
0!
#90
1!
b00001000 $
0%
#100
0!
#110
1!
b00010000 $
1%
#120
0!
#130
1!
b00100000 $
#140
0!
#150
1!
b01000000 $
#160
0!
#170
1!
b10000000 $
0%
#180
0!
#190
1!
b11111111 $
1%
